
31/03/2019 21:07:52 Retrieved loans successfully
31/03/2019 21:08:25 Retrieved loans successfully
31/03/2019 21:08:33 Retrieved loans successfully
31/03/2019 21:08:40 Retrieved loans successfully
31/03/2019 21:08:53 Created loan with id 21
31/03/2019 21:08:58 Loan cannot be inserted
31/03/2019 21:09:02 Loan cannot be inserted
31/03/2019 21:22:39 Retrieved loans successfully
31/03/2019 21:53:33 Retrieved loans successfully
31/03/2019 21:53:37 Retrieved loans successfully
31/03/2019 21:54:20 Retrieved loans successfully
31/03/2019 21:56:26 Request successful for loan with id 3
31/03/2019 22:19:30 Retrieved loans successfully
31/03/2019 22:19:43 Input not valid For input string: "a"
31/03/2019 22:19:51 Retrieved loans successfully
31/03/2019 22:20:08 Retrieved loans successfully
31/03/2019 22:20:34 Retrieved loans successfully
31/03/2019 22:20:57 Retrieved loans successfully
31/03/2019 22:21:13 Created loan with id 21
31/03/2019 22:21:30 Loan cannot be inserted
31/03/2019 22:21:37 Loan cannot be inserted
31/03/2019 22:21:41 Created loan with id 22
31/03/2019 22:21:52 Input not valid For input string: ""
31/03/2019 22:21:57 Created loan with id 23
31/03/2019 22:24:38 Created loan with id 25
31/03/2019 22:24:45 Created loan with id 26
31/03/2019 22:24:51 Created loan with id 27
01/04/2019 00:57:21 Failed to retrieve loan
01/04/2019 00:58:14 Request successful for loan with id 24
01/04/2019 00:59:42 Created loan with id 24
01/04/2019 00:11:43 Retrieved loans successfully
01/04/2019 00:11:52 Request successful for loan with id 24
01/04/2019 00:11:52 Created loan with id 24
01/04/2019 00:11:52 Retrieved loans successfully
01/04/2019 00:13:51 Retrieved loans successfully
01/04/2019 00:13:57 Retrieved loans successfully
01/04/2019 00:14:06 Retrieved loans successfully
01/04/2019 00:14:14 Retrieved loans successfully
01/04/2019 00:14:25 Loan cannot be inserted
01/04/2019 00:14:29 Created loan with id 27
01/04/2019 00:14:34 Created loan with id 28